# Command:
#   > ./pkg_setup.sh pkg_perzl_python-2.7.5-for-yum.lst
# Notes:
#

#
# read file
#
:file

#
# rpm list
#
:rpm
http://www.oss4aix.org/download/RPMS/libxml2/libxml2-2.9.4-1.aix5.1.ppc.rpm
http://www.oss4aix.org/download/RPMS/zlib/zlib-1.2.8-1.aix5.1.ppc.rpm
http://www.oss4aix.org/download/RPMS//xz/xz-5.0.7-1.aix5.1.ppc.rpm
http://www.oss4aix.org/download/RPMS//xz/xz-libs-5.0.7-1.aix5.1.ppc.rpm

